fpga/demo/waveform.vcd
$date
	Wed Dec 18 12:00:15 2024
$end
$version
	Icarus Verilog
$end
$timescale
	1ps
$end
$scope module dv_top $end
$var wire 1 ! dut_active $end
$var wire 1 " dut_sready $end
$var wire 1 # sready $end
$var wire 1 $ vss $end
$var wire 1 % vdd $end
$var wire 16 & stim_count [15:0] $end
$var wire 1 ' start $end
$var wire 16 ( sample_data [15:0] $end
$var wire 1 ) nreset $end
$var wire 16 * dut_sample [15:0] $end
$var wire 32 + dut_data [31:0] $end
$var wire 1 , dut_cwait $end
$var wire 1 - dut_cready $end
$var wire 16 . dut_addr [15:0] $end
$var wire 1 / ctrl_write $end
$var wire 1 0 ctrl_wait $end
$var wire 1 1 ctrl_ready $end
$var wire 32 2 ctrl_data [31:0] $end
$var wire 16 3 ctrl_addr [15:0] $end
$var wire 1 4 cmds_done $end
$var wire 1 5 clk $end
$var parameter 32 6 AW $end
$var parameter 32 7 DW $end
$var parameter 32 8 INDEX $end
$var parameter 32 9 MAW $end
$var parameter 32 : NAME $end
$var parameter 32 ; OUTWIDTH $end
$var parameter 32 < SW $end
$scope module dut $end
$var wire 16 = addr [15:0] $end
$var wire 1 > clk_i $end
$var wire 1 ? data_wait $end
$var wire 1 ! dut_active $end
$var wire 16 @ dut_addr [15:0] $end
$var wire 1 - dut_cready $end
$var wire 1 , dut_cwait $end
$var wire 32 A dut_data [31:0] $end
$var wire 1 " dut_sready $end
$var wire 1 B iir_module_addr $end
$var wire 1 C read_cycle $end
$var wire 1 D ren $end
$var wire 1 E rstn_i $end
$var wire 32 F wdata [31:0] $end
$var wire 1 G wen $end
$var wire 16 H sample_data [15:0] $end
$var wire 32 I rdata [31:0] $end
$var wire 1 ) nreset $end
$var wire 16 J dut_sample [15:0] $end
$var wire 1 K data_ready $end
$var wire 14 L dat_o [13:0] $end
$var wire 16 M dat_i [15:0] $end
$var wire 1 / ctrl_write $end
$var wire 1 1 ctrl_ready $end
$var wire 32 N ctrl_data [31:0] $end
$var wire 16 O ctrl_addr [15:0] $end
$var wire 1 5 clk $end
$var wire 1 P ack $end
$var parameter 32 Q AW $end
$var parameter 32 R DW $end
$var parameter 16 S FILTERMINBW $end
$var parameter 16 T FILTERSHIFTBITS $end
$var parameter 16 U FILTERSTAGES $end
$var parameter 16 V IIRBITS $end
$var parameter 16 W IIRSHIFT $end
$var parameter 16 X IIRSTAGES $end
$var parameter 16 Y LOOP $end
$var parameter 16 Z OVERFLOW $end
$var parameter 16 [ SET_FILTER $end
$var parameter 16 \ SHORTCUT $end
$var parameter 32 ] SW $end
$var parameter 32 ^ WC $end
$var reg 3 _ wait_count [2:0] $end
$scope module red_pitaya_iir_block $end
$var wire 16 ` addr [15:0] $end
$var wire 1 > clk_i $end
$var wire 14 a dat_i [13:0] $end
$var wire 1 D ren $end
$var wire 1 E rstn_i $end
$var wire 32 b wdata [31:0] $end
$var wire 1 G wen $end
$var wire 34 c y_sum [33:0] $end
$var wire 32 d y_full [31:0] $end
$var wire 32 e p_bx1_full [31:0] $end
$var wire 32 f p_bx0_full [31:0] $end
$var wire 32 g p_ay2_full [31:0] $end
$var wire 32 h p_ay1_full [31:0] $end
$var wire 7 i overflow_i [6:0] $end
$var wire 14 j dat_o_full [13:0] $end
$var wire 17 k dat_i_filtered [16:0] $end
$var parameter 32 l FILTERMINBW $end
$var parameter 32 m FILTERSHIFTBITS $end
$var parameter 32 n FILTERSTAGES $end
$var parameter 32 o IIRBITS $end
$var parameter 32 p IIRSHIFT $end
$var parameter 32 q IIRSIGNALBITS $end
$var parameter 32 r IIRSTAGES $end
$var parameter 32 s LOOPBITS $end
$var parameter 32 t SIGNALBITS $end
$var parameter 32 u SIGNALSHIFT $end
$var reg 32 v a1 [31:0] $end
$var reg 32 w a2 [31:0] $end
$var reg 1 P ack $end
$var reg 32 x b0 [31:0] $end
$var reg 32 y b1 [31:0] $end
$var reg 14 z dat_o [13:0] $end
$var reg 36 { dat_o_sum [35:0] $end
$var reg 10 | loops [9:0] $end
$var reg 1 } on $end
$var reg 32 ~ overflow [31:0] $end
$var reg 32 !" p_ay1 [31:0] $end
$var reg 32 "" p_ay2 [31:0] $end
$var reg 32 #" p_bx0 [31:0] $end
$var reg 32 $" p_bx1 [31:0] $end
$var reg 32 %" rdata [31:0] $end
$var reg 32 &" set_filter [31:0] $end
$var reg 1 '" shortcut $end
$var reg 14 (" signal_o [13:0] $end
$var reg 10 )" stage0 [9:0] $end
$var reg 10 *" stage1 [9:0] $end
$var reg 10 +" stage2 [9:0] $end
$var reg 10 ," stage3 [9:0] $end
$var reg 10 -" stage4 [9:0] $end
$var reg 32 ." x0 [31:0] $end
$var reg 32 /" x0b [31:0] $end
$var reg 32 0" x1b [31:0] $end
$var reg 32 1" y1a [31:0] $end
$var reg 32 2" y2a [31:0] $end
$var reg 32 3" z0 [31:0] $end
$var integer 32 4" i [31:0] $end
$scope begin genblk1[0] $end
$var parameter 2 5" j $end
$upscope $end
$scope begin genblk1[1] $end
$var parameter 2 6" j $end
$upscope $end
$scope begin genblk1[2] $end
$var parameter 3 7" j $end
$upscope $end
$scope begin genblk1[3] $end
$var parameter 3 8" j $end
$upscope $end
$scope begin genblk1[4] $end
$var parameter 4 9" j $end
$upscope $end
$scope begin genblk1[5] $end
$var parameter 4 :" j $end
$upscope $end
$scope begin genblk1[6] $end
$var parameter 4 ;" j $end
$upscope $end
$scope begin genblk1[7] $end
$var parameter 4 <" j $end
$upscope $end
$scope begin genblk1[8] $end
$var parameter 5 =" j $end
$upscope $end
$scope begin genblk1[9] $end
$var parameter 5 >" j $end
$upscope $end
$scope begin genblk1[10] $end
$var parameter 5 ?" j $end
$upscope $end
$scope begin genblk1[11] $end
$var parameter 5 @" j $end
$upscope $end
$scope begin genblk1[12] $end
$var parameter 5 A" j $end
$upscope $end
$scope begin genblk1[13] $end
$var parameter 5 B" j $end
$upscope $end
$scope module iir_inputfilter $end
$var wire 1 > clk_i $end
$var wire 17 C" dat_i [16:0] $end
$var wire 17 D" dat_o [16:0] $end
$var wire 1 E rstn_i $end
$var wire 32 E" set_filter [31:0] $end
$var parameter 32 F" MINBW $end
$var parameter 32 G" SHIFTBITS $end
$var parameter 33 H" SIGNALBITS $end
$var parameter 32 I" STAGES $end
$scope begin genblk2[0] $end
$var parameter 2 J" j $end
$scope module lpf $end
$var wire 1 > clk_i $end
$var wire 1 K" filter_on $end
$var wire 1 L" highpass $end
$var wire 1 E rstn_i $end
$var wire 4 M" shift [3:0] $end
$var wire 17 N" signal_i [16:0] $end
$var wire 17 O" y_out [16:0] $end
$var wire 17 P" signal_o [16:0] $end
$var wire 34 Q" shifted_delta [33:0] $end
$var parameter 32 R" MAXSHIFT $end
$var parameter 32 S" MINBW $end
$var parameter 32 T" SHIFTBITS $end
$var parameter 33 U" SIGNALBITS $end
$var reg 34 V" delta [33:0] $end
$var reg 34 W" y [33:0] $end
$upscope $end
$upscope $end
$upscope $end
$scope module p_ay1_module $end
$var wire 32 X" factor1_i [31:0] $end
$var wire 32 Y" factor2_i [31:0] $end
$var wire 32 Z" product_o [31:0] $end
$var wire 64 [" product [63:0] $end
$var wire 1 \" overflow $end
$var parameter 32 ]" BITS_IN1 $end
$var parameter 32 ^" BITS_IN2 $end
$var parameter 32 _" BITS_OUT $end
$var parameter 32 `" SHIFT $end
$upscope $end
$scope module p_ay2_module $end
$var wire 32 a" factor1_i [31:0] $end
$var wire 32 b" factor2_i [31:0] $end
$var wire 32 c" product_o [31:0] $end
$var wire 64 d" product [63:0] $end
$var wire 1 e" overflow $end
$var parameter 32 f" BITS_IN1 $end
$var parameter 32 g" BITS_IN2 $end
$var parameter 32 h" BITS_OUT $end
$var parameter 32 i" SHIFT $end
$upscope $end
$scope module p_bx0_module $end
$var wire 32 j" factor1_i [31:0] $end
$var wire 32 k" factor2_i [31:0] $end
$var wire 32 l" product_o [31:0] $end
$var wire 64 m" product [63:0] $end
$var wire 1 n" overflow $end
$var parameter 32 o" BITS_IN1 $end
$var parameter 32 p" BITS_IN2 $end
$var parameter 32 q" BITS_OUT $end
$var parameter 32 r" SHIFT $end
$upscope $end
$scope module p_bx1_module $end
$var wire 32 s" factor1_i [31:0] $end
$var wire 32 t" factor2_i [31:0] $end
$var wire 32 u" product_o [31:0] $end
$var wire 64 v" product [63:0] $end
$var wire 1 w" overflow $end
$var parameter 32 x" BITS_IN1 $end
$var parameter 32 y" BITS_IN2 $end
$var parameter 32 z" BITS_OUT $end
$var parameter 32 {" SHIFT $end
$upscope $end
$scope module s_dat_o_module $end
$var wire 36 |" input_i [35:0] $end
$var wire 1 }" overflow $end
$var wire 14 ~" output_o [13:0] $end
$var parameter 33 !# BITS_IN $end
$var parameter 32 "# BITS_OUT $end
$var parameter 33 ## SHIFT $end
$upscope $end
$scope module s_y0_module $end
$var wire 34 $# input_i [33:0] $end
$var wire 1 %# overflow $end
$var wire 32 &# output_o [31:0] $end
$var parameter 33 '# BITS_IN $end
$var parameter 32 (# BITS_OUT $end
$var parameter 32 )# SHIFT $end
$upscope $end
$upscope $end
$upscope $end
$scope module dv_ctrl $end
$var wire 1 ! dut_active $end
$var wire 1 *# test_done $end
$var wire 1 4 cmds_done $end
$var parameter 32 +# CFG_CLK_PERIOD $end
$var parameter 32 ,# CFG_CLK_PHASE $end
$var parameter 32 -# CFG_TIMEOUT $end
$var reg 1 5 clk $end
$var reg 7 .# clk_phase [6:0] $end
$var reg 1 ) nreset $end
$var reg 1 ' start $end
$var reg 1 % vdd $end
$var reg 1 $ vss $end
$var integer 32 /# r [31:0] $end
$var integer 32 0# seed [31:0] $end
$upscope $end
$scope module dv_read_cmds $end
$var wire 1 5 clk $end
$var wire 1 4 cmds_done $end
$var wire 1 0 ctrl_wait $end
$var wire 1 , dut_cwait $end
$var wire 1 1# is_sample_d1 $end
$var wire 1 ) nreset $end
$var wire 1 2# stall_random $end
$var wire 1 ' start $end
$var parameter 34 3# AS $end
$var parameter 32 4# AW $end
$var parameter 32 5# CRW $end
$var parameter 33 6# DS $end
$var parameter 32 7# DW $end
$var parameter 32 8# INDEX $end
$var parameter 32 9# MAW $end
$var parameter 47 :# MD $end
$var parameter 32 ;# NAME $end
$var parameter 35 <# SAMPLE $end
$var parameter 35 =# SS $end
$var parameter 32 ># SW $end
$var parameter 32 ?# WAIT $end
$var reg 16 @# ctrl_addr [15:0] $end
$var reg 32 A# ctrl_data [31:0] $end
$var reg 1 1 ctrl_ready $end
$var reg 1 / ctrl_write $end
$var reg 1 B# dut_cwait_d1 $end
$var reg 1 C# is_sample_d2 $end
$var reg 1 D# is_sample_p1 $end
$var reg 16 E# mem_addr_d2 [15:0] $end
$var reg 68 F# mem_data_d1 [67:0] $end
$var reg 32 G# mem_data_d2 [31:0] $end
$var reg 1 H# mem_ready_d1 $end
$var reg 1 I# mem_ready_d2 $end
$var reg 1 J# mem_write_d2 $end
$var reg 16 K# sample_count [15:0] $end
$var reg 16 L# sample_data [15:0] $end
$var reg 16 M# sample_end [15:0] $end
$var reg 16 N# sample_start [15:0] $end
$var reg 1 O# sample_state $end
$var reg 16 P# sample_wait_counter [15:0] $end
$var reg 2 Q# state [1:0] $end
$var reg 16 R# stim_addr [15:0] $end
$var reg 16 S# stim_count [15:0] $end
$var reg 16 T# stim_end [15:0] $end
$var reg 1025 U# str [1024:0] $end
$var reg 256 V# testfile [255:0] $end
$var reg 16 W# wait_counter [15:0] $end
$var integer 32 X# fd [31:0] $end
$var integer 32 Y# j [31:0] $end
$scope begin genblk1 $end
$upscope $end
$upscope $end
$scope module fpga_trace $end
$var wire 1 5 clk $end
$var wire 16 Z# dut_addr [15:0] $end
$var wire 1 - dut_cready $end
$var wire 1 , dut_cwait $end
$var wire 32 [# dut_data [31:0] $end
$var wire 16 \# dut_sample [15:0] $end
$var wire 1 # dut_sready $end
$var wire 1 ) nreset $end
$var parameter 32 ]# AW $end
$var parameter 32 ^# CRW $end
$var parameter 32 _# DW $end
$var parameter 32 `# INDEX $end
$var parameter 32 a# MAW $end
$var parameter 47 b# MD $end
$var parameter 32 c# NAME $end
$var parameter 32 d# SW $end
$var reg 32 e# ftrace [31:0] $end
$var reg 256 f# samplefile [255:0] $end
$var reg 32 g# strace [31:0] $end
$var reg 256 h# tracefile [255:0] $end
$upscope $end
$upscope $end
$enddefinitions $end
$comment Show the parameter values. $end
$dumpall
b10000 d#
b1110100011001010111001101110100 c#
b1000000000000000 b#
b10000 a#
b0 `#
b100000 _#
b100 ^#
b10000 ]#
b0 ?#
b10000 >#
b1000100 =#
b1000 <#
b1110100011001010111001101110100 ;#
b1000000000000000 :#
b10000 9#
b0 8#
b100000 7#
b10100 6#
b100 5#
b10000 4#
b110100 3#
b1001110001000 -#
b101 ,#
b1010 +#
b0 )#
b100000 (#
b100010 '#
b10001 ##
b1110 "#
b100100 !#
b11101 {"
b100000 z"
b100000 y"
b100000 x"
b11101 r"
b100000 q"
b100000 p"
b100000 o"
b11101 i"
b100000 h"
b100000 g"
b100000 f"
b11101 `"
b100000 _"
b100000 ^"
b100000 ]"
b10001 U"
b11 T"
b1111101000 S"
b10001 R"
b0 J"
b1 I"
b10001 H"
b11 G"
b1111101000 F"
b1101 B"
b1100 A"
b1011 @"
b1010 ?"
b1001 >"
b1000 ="
b111 <"
b110 ;"
b101 :"
b100 9"
b11 8"
b10 7"
b1 6"
b0 5"
b11 u
b1110 t
b1010 s
b1110 r
b100000 q
b11101 p
b100000 o
b1 n
b11 m
b1111101000 l
b11 ^
b10000 ]
b100000100 \
b100100000 [
b100001000 Z
b100000000 Y
b1000001000 X
b1000000100 W
b1000000000 V
b1000100000 U
b1000100100 T
b1000101000 S
b100000 R
b10000 Q
b10000 <
b1000 ;
b1110100011001010111001101110100 :
b10000 9
b0 8
b100000 7
b10000 6
$end
#0
$dumpvars
bx h#
bx g#
bx f#
bx e#
b0xxxxxxxxxxxxxx \#
bx [#
bx Z#
b10011011 Y#
b10000000000000000000000000000011 X#
bx W#
b1110100011001010111001101110100010111110011000000101110011001010110110101100110 V#
b11000000110000001100000011000001011111001100000011000100110000001110000101111100110000001100000011000000110000001100000011000000110000001100000101111100110000010111110011000000110000001100000011000000100000001011110010111100100000010011110101011001000101010100100100011001001100010011110101011100001010 U#
b10011011 T#
bx S#
bx R#
bx Q#
bx P#
xO#
bx N#
bx M#
bx L#
bx K#
xJ#
xI#
xH#
bx G#
bx F#
bx E#
xD#
xC#
xB#
bx A#
bx @#
02#
x1#
bx 0#
b0 /#
b101 .#
1*#
bx &#
x%#
bx $#
bx ~"
x}"
bx |"
xw"
bx v"
bx u"
bx t"
bx s"
xn"
bx m"
bx l"
bx k"
bx j"
xe"
bx d"
bx c"
bx b"
bx a"
x\"
bx ["
bx Z"
bx Y"
bx X"
bx W"
bx V"
bx Q"
bx P"
bx O"
bx000 N"
b0xxx M"
xL"
xK"
bx E"
bx D"
bx000 C"
bx 4"
bx 3"
bx 2"
bx 1"
bx 0"
bx /"
bx ."
bx -"
bx ,"
bx +"
bx *"
bx )"
bx ("
x'"
bx &"
bx %"
bx $"
bx #"
bx ""
bx !"
bx ~
x}
bx |
bx {
bx z
bx y
bx x
bx w
bx v
bx k
bx j
bxzxxxxx i
bx h
bx g
bx f
bx e
bx d
bx c
bx b
bx a
bx `
bx _
xP
bx O
bx N
bzxxxxxxxxxxxxxx M
bx L
xK
b0xxxxxxxxxxxxxx J
bx I
bx H
xG
bx F
xE
xD
xC
xB
bx A
bx @
x?
0>
bx =
05
x4
bx 3
bx 2
x1
00
x/
bx .
x-
x,
bx +
b0xxxxxxxxxxxxxx *
x)
bx (
x'
bx &
x%
x$
x#
1"
1!
$end
#1000
1#
0B
b0 N"
b0 C"
b0 a
0?
0,
04
0C
1D
bz00000000000000 M
0-
0'
01#
0D#
b0 R#
b0 &
b0 S#
b0 F#
0H#
b0 W#
b0 Q#
01
0G
0/
b0 F
b0 b
b0 2
b0 N
b0 A#
b0 .
b0 @
b0 Z#
b0 =
b0 `
b0 3
b0 O
b0 @#
0I#
0J#
b0 G#
b0 E#
b0 M#
b0 N#
b0 P#
b0 K#
0O#
b0 (
b0 H
b0 L#
0K
b0 _
0$
0%
0E
0)
#5000
b0 k
b0 D"
b0 P"
b0 Q"
b0 O"
b0 M"
0K"
0L"
b0 V"
b0 W"
b0 &"
b0 E"
0'"
0}
b0 |
bx00000000000000 ."
0C#
0B#
1>
15
#10000
0>
05
b10000000000000000000000000000101 g#
b1110100011001010111001101110100010111110111001101100001011011010111000001101100011001010101111100110000001011100111010001110010011000010110001101100101 f#
b10000000000000000000000000000100 e#
b111010001100101011100110111010001011111011000110111010001110010011011000101111100110000001011100111010001110010011000010110001101100101 h#
#15000
0%#
b0 d
b0 &#
0w"
b0 e
b0 u"
0e"
b0 g
b0 c"
bxz0x000 i
0\"
b0 h
b0 Z"
b0 ("
b0 c
b0 $#
b0 $"
b0 #"
b0 ""
b0 !"
b10000000000000000000000000000 v"
b0 y
b0 t"
b0 x
b0 k"
b10000000000000000000000000000 d"
b0 w
b0 b"
b10000000000000000000000000000 ["
b0 v
b0 Y"
b0 3"
b0 0"
b0 s"
b0 2"
b0 a"
b0 1"
b0 X"
b0 ."
bx -"
bx ,"
bx +"
bx *"
b0 )"
b0 ~
b1110 4"
1>
15
#20000
0>
05
#25000
bx -"
bx ,"
bx +"
b0 *"
b0 *
b0 J
b0 \#
b0 L
b0 z
b1110 4"
1>
15
#30000
0>
05
#35000
bx -"
bx ,"
b0 +"
b1110 4"
1>
15
#40000
0>
05
#45000
bx -"
b0 ,"
b1110 4"
1>
15
#50000
0>
05
#55000
b0 -"
b1110 4"
1>
15
#60000
0>
05
#65000
b1110 4"
1>
15
#70000
0>
05
#75000
b1110 4"
1>
15
#80000
0>
05
#85000
b1110 4"
1>
15
#90000
0>
05
#95000
b1110 4"
1>
15
#100000
0>
05
#105000
b1110 4"
1>
15
#110000
0>
05
#115000
b1110 4"
1>
15
#120000
0>
05
#125000
b1110 4"
1>
15
#130000
0>
05
#135000
b1110 4"
1>
15
#140000
0>
05
#145000
b1110 4"
1>
15
#150000
0>
05
#151000
x%
#155000
b1110 4"
1>
15
#160000
0>
05
#165000
b1110 4"
1>
15
#170000
0>
05
#175000
b1110 4"
1>
15
#180000
0>
05
#185000
b1110 4"
1>
15
#190000
0>
05
#195000
b1110 4"
1>
15
#200000
0>
05
#205000
b1110 4"
1>
15
#210000
0>
05
#215000
b1110 4"
1>
15
#220000
0>
05
#225000
b1110 4"
1>
15
#230000
0>
05
#235000
b1110 4"
1>
15
#240000
0>
05
#245000
b1110 4"
1>
15
#250000
0>
05
#255000
b1110 4"
1>
15
#260000
0>
05
#265000
b1110 4"
1>
15
#270000
0>
05
#275000
b1110 4"
1>
15
#280000
0>
05
#285000
b1110 4"
1>
15
#290000
0>
05
#295000
b1110 4"
1>
15
#300000
0>
05
#301000
1%
#305000
b1110 4"
1>
15
#310000
0>
05
#315000
b1110 4"
1>
15
#320000
0>
05
#325000
b1110 4"
1>
15
#330000
0>
05
#335000
b1110 4"
1>
15
#340000
0>
05
#345000
b1110 4"
1>
15
#350000
0>
05
#355000
b1110 4"
1>
15
#360000
0>
05
#365000
b1110 4"
1>
15
#370000
0>
05
#375000
b1110 4"
1>
15
#380000
0>
05
#385000
b1110 4"
1>
15
#390000
0>
05
#395000
b1110 4"
1>
15
#400000
0>
05
#405000
b1110 4"
1>
15
#410000
0>
05
#415000
b1110 4"
1>
15
#420000
0>
05
#425000
b1110 4"
1>
15
#430000
0>
05
#435000
b1110 4"
1>
15
#440000
0>
05
#445000
b1110 4"
1>
15
#450000
0>
05
#455000
b1110 4"
1>
15
#460000
0>
05
#465000
b1110 4"
1>
15
#470000
0>
05
#475000
b1110 4"
1>
15
#480000
0>
05
#485000
b1110 4"
1>
15
#490000
0>
05
#495000
b1110 4"
1>
15
#500000
0>
05
#505000
b1110 4"
1>
15
#510000
0>
05
#515000
b1110 4"
1>
15
#520000
0>
05
#525000
b1110 4"
1>
15
#530000
0>
05
#535000
b1110 4"
1>
15
#540000
0>
05
#545000
b1110 4"
1>
15
#550000
0>
05
#555000
b1110 4"
1>
15
#560000
0>
05
#565000
b1110 4"
1>
15
#570000
0>
05
#575000
b1110 4"
1>
15
#580000
0>
05
#585000
b1110 4"
1>
15
#590000
0>
05
#595000
b1110 4"
1>
15
#600000
0>
05
#601000
1E
1)
#605000
b0 +
b0 A
b0 [#
b0 I
b0 %"
1P
1'
b1110 4"
1>
15
#610000
0>
05
#615000
b1 Q#
b1110 4"
1>
15
#620000
0>
05
#625000
11#
1D#
b1 &
b1 S#
b1 R#
1H#
b10000000000000000000 F#
b1110 4"
1>
15
#630000
0>
05
#635000
1C#
b10 &
b10 S#
b10 R#
b1 M#
b1110 4"
1>
15
#640000
0>
05
#645000
b100000000000000 k
b100000000000000 D"
b100000000000000 P"
b100000000000000 N"
b100000000000000 C"
b100000000000 a
bz00100000000000 M
b1 K#
b100000000000 (
b100000000000 H
b100000000000 L#
b10 M#
b11 &
b11 S#
b11 R#
b1110 4"
1>
15
#650000
0>
05
#655000
b100101000000000 k
b100101000000000 D"
b100101000000000 P"
b100101000000000 N"
b100101000000000 C"
b100101000000 a
bz00100101000000 M
b10000000000000000000000000000 ."
b100000000000000 Q"
b100000000000000 V"
b100 &
b100 S#
b100 R#
b11 M#
b10 K#
b100101000000 (
b100101000000 H
b100101000000 L#
b1110 4"
1>
15
#660000
0>
05
#665000
b101001111000000 k
b101001111000000 D"
b101001111000000 P"
b101001111000000 N"
b101001111000000 C"
b101001111000 a
bz00101001111000 M
b100000000000000 W"
b100101000000000 Q"
b100101000000000 V"
b10010100000000000000000000000 ."
b11 K#
b101001111000 (
b101001111000 H
b101001111000 L#
b100 M#
b101 &
b101 S#
b101 R#
b1110 4"
1>
15
#670000
0>
05
#675000
b101110100001000 k
b101110100001000 D"
b101110100001000 P"
b101110100001000 N"
b101110100001000 C"
b101110100001 a
bz00101110100001 M
b10100111100000000000000000000 ."
b1000101000000000 W"
b101001111000000 Q"
b101001111000000 V"
b110 &
b110 S#
b110 R#
b101 M#
b100 K#
b101110100001 (
b101110100001 H
b101110100001 L#
b1110 4"
1>
15
#680000
0>
05
#685000
b110010110011000 k
b110010110011000 D"
b110010110011000 P"
b110010110011000 N"
b110010110011000 C"
b110010110011 a
bz00110010110011 M
b1101110111000000 W"
b101110100001000 Q"
b101110100001000 V"
b10111010000100000000000000000 ."
b101 K#
b110010110011 (
b110010110011 H
b110010110011 L#
b110 M#
b111 &
b111 S#
b111 R#
b1110 4"
1>
15
#690000
0>
05
#695000
b110110100111000 k
b110110100111000 D"
b110110100111000 P"
b110110100111000 N"
b110110100111000 C"
b110110100111 a
bz00110110100111 M
b11001011001100000000000000000 ."
b10011101011001000 W"
b110010110011000 Q"
b110010110011000 V"
b1000 &
b1000 S#
b1000 R#
b111 M#
b110 K#
b110110100111 (
b110110100111 H
b110110100111 L#
b1110 4"
1>
15
#700000
0>
05
#705000
b111001111000000 k
b111001111000000 D"
b111001111000000 P"
b111001111000000 N"
b111001111000000 C"
b111001111000 a
bz00111001111000 M
b11010000001100000 W"
b110110100111000 Q"
b110110100111000 V"
b11011010011100000000000000000 ."
b111 K#
b111001111000 (
b111001111000 H
b111001111000 L#
b1000 M#
b1001 &
b1001 S#
b1001 R#
b1110 4"
1>
15
#710000
0>
05
#715000
b111100011111000 k
b111100011111000 D"
b111100011111000 P"
b111100011111000 N"
b111100011111000 C"
b111100011111 a
b1 O"
bz00111100011111 M
b11100111100000000000000000000 ."
b100000110110011000 W"
b111001111000000 Q"
b111001111000000 V"
b1010 &
b1010 S#
b1010 R#
b1001 M#
b1000 K#
b111100011111 (
b111100011111 H
b111100011111 L#
b1110 4"
1>
15
#720000
0>
05
#725000
b111110011010000 k
b111110011010000 D"
b111110011010000 P"
b111110011010000 N"
b111110011010000 C"
b111110011010 a
bz00111110011010 M
b101000000101011000 W"
b111100011110111 Q"
b111100011110111 V"
b11110001111100000000000000000 ."
b1001 K#
b111110011010 (
b111110011010 H
b111110011010 L#
b1010 M#
b1011 &
b1011 S#
b1011 R#
b1110 4"
1>
15
#730000
0>
05
#735000
b111111100101000 k
b111111100101000 D"
b111111100101000 P"
b111111100101000 N"
b111111100101000 C"
b111111100101 a
bz00111111100101 M
b11111001101000000000000000000 ."
b101111101001001111 W"
b111110011001111 Q"
b111110011001111 V"
b1100 &
b1100 S#
b1100 R#
b1011 M#
b1010 K#
b111111100101 (
b111111100101 H
b111111100101 L#
b1110 4"
1>
15
#740000
0>
05
#745000
b111111111111000 k
b111111111111000 D"
b111111111111000 P"
b111111111111000 N"
b111111111111000 C"
b111111111111 a
bz00111111111111 M
b110111011100011110 W"
b111111100100111 Q"
b111111100100111 V"
b11111110010100000000000000000 ."
b1011 K#
b111111111111 (
b111111111111 H
b111111111111 L#
b1100 M#
b1101 &
b1101 S#
b1101 R#
b1110 4"
1>
15
#750000
0>
05
#755000
b111111100101000 k
b111111100101000 D"
b111111100101000 P"
b111111100101000 N"
b111111100101000 C"
b111111100101 a
bz00111111100101 M
b11111111111100000000000000000 ."
b111111011001000101 W"
b111111111110111 Q"
b111111111110111 V"
b1110 &
b1110 S#
b1110 R#
b1101 M#
b1100 K#
b111111100101 (
b111111100101 H
b111111100101 L#
b1110 4"
1>
15
#760000
0>
05
#765000
b111110011010000 k
b111110011010000 D"
b111110011010000 P"
b111110011010000 N"
b111110011010000 C"
b111110011010 a
b10 O"
bz00111110011010 M
b1000111011000111100 W"
b111111100100111 Q"
b111111100100111 V"
b11111110010100000000000000000 ."
b1101 K#
b111110011010 (
b111110011010 H
b111110011010 L#
b1110 M#
b1111 &
b1111 S#
b1111 R#
b1110 4"
1>
15
#770000
0>
05
#775000
b111100011111000 k
b111100011111000 D"
b111100011111000 P"
b111100011111000 N"
b111100011111000 C"
b111100011111 a
bz00111100011111 M
b11111001101000000000000000000 ."
b1001111010101100011 W"
b111110011001110 Q"
b111110011001110 V"
b10000 &
b10000 S#
b10000 R#
b1111 M#
b1110 K#
b111100011111 (
b111100011111 H
b111100011111 L#
b1110 4"
1>
15
#780000
0>
05
#785000
b111001111000000 k
b111001111000000 D"
b111001111000000 P"
b111001111000000 N"
b111001111000000 C"
b111001111000 a
bz00111001111000 M
b1010111001000110001 W"
b111100011110110 Q"
b111100011110110 V"
b11110001111100000000000000000 ."
b1111 K#
b111001111000 (
b111001111000 H
b111001111000 L#
b10000 M#
b10001 &
b10001 S#
b10001 R#
b1110 4"
1>
15
#790000
0>
05
#795000
b110110100111000 k
b110110100111000 D"
b110110100111000 P"
b110110100111000 N"
b110110100111000 C"
b110110100111 a
bz00110110100111 M
b11100111100000000000000000000 ."
b1011110101100100111 W"
b111001110111110 Q"
b111001110111110 V"
b10010 &
b10010 S#
b10010 R#
b10001 M#
b10000 K#
b110110100111 (
b110110100111 H
b110110100111 L#
b1110 4"
1>
15
#800000
0>
05
#805000
b110010110011000 k
b110010110011000 D"
b110010110011000 P"
b110010110011000 N"
b110010110011000 C"
b110010110011 a
b11 O"
bz00110010110011 M
b1100101111011100101 W"
b110110100110110 Q"
b110110100110110 V"
b11011010011100000000000000000 ."
b10001 K#
b110010110011 (
b110010110011 H
b110010110011 L#
b10010 M#
b10011 &
b10011 S#
b10011 R#
b1110 4"
1>
15
#810000
0>
05
#815000
b101110100001000 k
b101110100001000 D"
b101110100001000 P"
b101110100001000 N"
b101110100001000 C"
b101110100001 a
bz00101110100001 M
b11001011001100000000000000000 ."
b1101100110000011011 W"
b110010110010101 Q"
b110010110010101 V"
b10100 &
b10100 S#
b10100 R#
b10011 M#
b10010 K#
b101110100001 (
b101110100001 H
b101110100001 L#
b1110 4"
1>
15
#820000
0>
05
#825000
b101001111000000 k
b101001111000000 D"
b101001111000000 P"
b101001111000000 N"
b101001111000000 C"
b101001111000 a
bz00101001111000 M
b1110011000110110000 W"
b101110100000101 Q"
b101110100000101 V"
b10111010000100000000000000000 ."
b10011 K#
b101001111000 (
b101001111000 H
b101001111000 L#
b10100 M#
b10101 &
b10101 S#
b10101 R#
b1110 4"
1>
15
#830000
0>
05
#835000
b100101000000000 k
b100101000000000 D"
b100101000000000 P"
b100101000000000 N"
b100101000000000 C"
b100101000000 a
bz00100101000000 M
b10100111100000000000000000000 ."
b1111000111010110101 W"
b101001110111101 Q"
b101001110111101 V"
b10110 &
b10110 S#
b10110 R#
b10101 M#
b10100 K#
b100101000000 (
b100101000000 H
b100101000000 L#
b1110 4"
1>
15
#840000
0>
05
#845000
b100000000000000 k
b100000000000000 D"
b100000000000000 P"
b100000000000000 N"
b100000000000000 C"
b100000000000 a
bz00100000000000 M
b1111110001001110010 W"
b100100111111101 Q"
b100100111111101 V"
b10010100000000000000000000000 ."
b10101 K#
b100000000000 (
b100000000000 H
b100000000000 L#
b10110 M#
b10111 &
b10111 S#
b10111 R#
b1110 4"
1>
15
#850000
0>
05
#855000
b11010111111000 k
b11010111111000 D"
b11010111111000 P"
b11010111111000 N"
b11010111111000 C"
b11010111111 a
b100 O"
bz00011010111111 M
b10000000000000000000000000000 ."
b10000010110001101111 W"
b11111111111101 Q"
b11111111111101 V"
b11000 &
b11000 S#
b11000 R#
b10111 M#
b10110 K#
b11010111111 (
b11010111111 H
b11010111111 L#
b1110 4"
1>
15
#860000
0>
05
#865000
b10110000111000 k
b10110000111000 D"
b10110000111000 P"
b10110000111000 N"
b10110000111000 C"
b10110000111 a
bz00010110000111 M
b10000110110001101100 W"
b11010111110100 Q"
b11010111110100 V"
b1101011111100000000000000000 ."
b10111 K#
b10110000111 (
b10110000111 H
b10110000111 L#
b11000 M#
b11001 &
b11001 S#
b11001 R#
b1110 4"
1>
15
#870000
0>
05
